{
    "viewPoints": [],
	"models": [
        {
			"name": "bg",
			"deleted": true
		},
        {
			"name": "01",
			"deleted": true
		},
		{
			"name": "bg",
			"url": "models/export/gh2-bg-serre.obj",
			"enabled": true,
			"position": [
				0,
				0,
				0
			]
		},
        {
			"name": "01",
			"url": "models/export/gh2-01-serre.obj",
			"enabled": true,
			"position": [
				0,
				0,
				0
			]
		}
	]
}