mtllib bloemetjes op positie.mtl

v -0.079 -0.239 0.000
v -0.148 -0.158 0.000
v -0.058 -0.167 0.000
v -0.079 -0.239 0.000
v -0.058 -0.167 0.000
v -0.148 -0.158 0.000
v -0.079 -0.239 0.000
v -0.058 -0.167 0.000
v 0.030 -0.170 0.000
v -0.079 -0.239 0.000
v 0.030 -0.170 0.000
v -0.058 -0.167 0.000
v 0.030 -0.170 0.000
v 0.074 -0.118 0.000
v 0.107 -0.131 0.000
v 0.030 -0.170 0.000
v 0.107 -0.131 0.000
v 0.074 -0.118 0.000
v 0.030 -0.170 0.000
v 0.107 -0.131 0.000
v 0.153 -0.160 0.000
v 0.030 -0.170 0.000
v 0.153 -0.160 0.000
v 0.107 -0.131 0.000
v 0.030 -0.170 0.000
v 0.153 -0.160 0.000
v 0.143 -0.181 0.000
v 0.030 -0.170 0.000
v 0.143 -0.181 0.000
v 0.153 -0.160 0.000
v 0.030 -0.170 0.000
v 0.143 -0.181 0.000
v 0.175 -0.242 0.000
v 0.030 -0.170 0.000
v 0.175 -0.242 0.000
v 0.143 -0.181 0.000
v 0.030 -0.170 0.000
v 0.175 -0.242 0.000
v 0.106 -0.300 0.000
v 0.030 -0.170 0.000
v 0.106 -0.300 0.000
v 0.175 -0.242 0.000
v 0.030 -0.170 0.000
v 0.106 -0.300 0.000
v 0.058 -0.359 0.000
v 0.030 -0.170 0.000
v 0.058 -0.359 0.000
v 0.106 -0.300 0.000
v 0.030 -0.170 0.000
v 0.058 -0.359 0.000
v -0.009 -0.409 0.000
v 0.030 -0.170 0.000
v -0.009 -0.409 0.000
v 0.058 -0.359 0.000
v -0.009 -0.409 0.000
v -0.040 -0.367 0.000
v -0.038 -0.331 0.000
v -0.009 -0.409 0.000
v -0.038 -0.331 0.000
v -0.040 -0.367 0.000
v -0.009 -0.409 0.000
v -0.038 -0.331 0.000
v -0.016 -0.303 0.000
v -0.009 -0.409 0.000
v -0.016 -0.303 0.000
v -0.038 -0.331 0.000
v -0.071 -0.253 0.000
v -0.158 -0.255 0.000
v -0.163 -0.213 0.000
v -0.071 -0.253 0.000
v -0.163 -0.213 0.000
v -0.158 -0.255 0.000
v -0.071 -0.253 0.000
v -0.163 -0.213 0.000
v -0.142 -0.191 0.000
v -0.071 -0.253 0.000
v -0.142 -0.191 0.000
v -0.163 -0.213 0.000
v -0.071 -0.253 0.000
v -0.142 -0.191 0.000
v -0.148 -0.158 0.000
v -0.071 -0.253 0.000
v -0.148 -0.158 0.000
v -0.142 -0.191 0.000
v -0.071 -0.253 0.000
v -0.148 -0.158 0.000
v -0.079 -0.239 0.000
v -0.071 -0.253 0.000
v -0.079 -0.239 0.000
v -0.148 -0.158 0.000
v -0.071 -0.253 0.000
v -0.079 -0.239 0.000
v 0.030 -0.170 0.000
v -0.071 -0.253 0.000
v 0.030 -0.170 0.000
v -0.079 -0.239 0.000
v 0.030 -0.170 0.000
v -0.009 -0.409 0.000
v -0.016 -0.303 0.000
v 0.030 -0.170 0.000
v -0.016 -0.303 0.000
v -0.009 -0.409 0.000
v 0.030 -0.170 0.000
v -0.016 -0.303 0.000
v -0.071 -0.253 0.000
v 0.030 -0.170 0.000
v -0.071 -0.253 0.000
v -0.016 -0.303 0.000
v -0.145 -0.072 0.000
v -0.251 -0.063 0.000
v -0.181 -0.006 0.000
v -0.145 -0.072 0.000
v -0.181 -0.006 0.000
v -0.251 -0.063 0.000
v -0.145 -0.072 0.000
v -0.181 -0.006 0.000
v -0.117 0.054 0.000
v -0.145 -0.072 0.000
v -0.117 0.054 0.000
v -0.181 -0.006 0.000
v -0.117 0.054 0.000
v -0.121 0.122 0.000
v -0.089 0.136 0.000
v -0.117 0.054 0.000
v -0.089 0.136 0.000
v -0.121 0.122 0.000
v -0.117 0.054 0.000
v -0.089 0.136 0.000
v -0.037 0.148 0.000
v -0.117 0.054 0.000
v -0.037 0.148 0.000
v -0.089 0.136 0.000
v -0.117 0.054 0.000
v -0.037 0.148 0.000
v -0.029 0.126 0.000
v -0.117 0.054 0.000
v -0.029 0.126 0.000
v -0.037 0.148 0.000
v -0.117 0.054 0.000
v -0.029 0.126 0.000
v 0.037 0.106 0.000
v -0.117 0.054 0.000
v 0.037 0.106 0.000
v -0.029 0.126 0.000
v -0.117 0.054 0.000
v 0.037 0.106 0.000
v 0.029 0.016 0.000
v -0.117 0.054 0.000
v 0.029 0.016 0.000
v 0.037 0.106 0.000
v -0.117 0.054 0.000
v 0.029 0.016 0.000
v 0.037 -0.060 0.000
v -0.117 0.054 0.000
v 0.037 -0.060 0.000
v 0.029 0.016 0.000
v -0.117 0.054 0.000
v 0.037 -0.060 0.000
v 0.025 -0.142 0.000
v -0.117 0.054 0.000
v 0.025 -0.142 0.000
v 0.037 -0.060 0.000
v 0.025 -0.142 0.000
v -0.026 -0.134 0.000
v -0.051 -0.108 0.000
v 0.025 -0.142 0.000
v -0.051 -0.108 0.000
v -0.026 -0.134 0.000
v 0.025 -0.142 0.000
v -0.051 -0.108 0.000
v -0.055 -0.072 0.000
v 0.025 -0.142 0.000
v -0.055 -0.072 0.000
v -0.051 -0.108 0.000
v -0.129 -0.076 0.000
v -0.189 -0.138 0.000
v -0.222 -0.112 0.000
v -0.129 -0.076 0.000
v -0.222 -0.112 0.000
v -0.189 -0.138 0.000
v -0.129 -0.076 0.000
v -0.222 -0.112 0.000
v -0.222 -0.082 0.000
v -0.129 -0.076 0.000
v -0.222 -0.082 0.000
v -0.222 -0.112 0.000
v -0.129 -0.076 0.000
v -0.222 -0.082 0.000
v -0.251 -0.063 0.000
v -0.129 -0.076 0.000
v -0.251 -0.063 0.000
v -0.222 -0.082 0.000
v -0.129 -0.076 0.000
v -0.251 -0.063 0.000
v -0.145 -0.072 0.000
v -0.129 -0.076 0.000
v -0.145 -0.072 0.000
v -0.251 -0.063 0.000
v -0.129 -0.076 0.000
v -0.145 -0.072 0.000
v -0.117 0.054 0.000
v -0.129 -0.076 0.000
v -0.117 0.054 0.000
v -0.145 -0.072 0.000
v -0.117 0.054 0.000
v 0.025 -0.142 0.000
v -0.055 -0.072 0.000
v -0.117 0.054 0.000
v -0.055 -0.072 0.000
v 0.025 -0.142 0.000
v -0.117 0.054 0.000
v -0.055 -0.072 0.000
v -0.129 -0.076 0.000
v -0.117 0.054 0.000
v -0.129 -0.076 0.000
v -0.055 -0.072 0.000
v 0.127 0.331 0.000
v 0.208 0.400 0.000
v 0.199 0.310 0.000
v 0.127 0.331 0.000
v 0.199 0.310 0.000
v 0.208 0.400 0.000
v 0.127 0.331 0.000
v 0.199 0.310 0.000
v 0.196 0.222 0.000
v 0.127 0.331 0.000
v 0.196 0.222 0.000
v 0.199 0.310 0.000
v 0.196 0.222 0.000
v 0.247 0.177 0.000
v 0.234 0.144 0.000
v 0.196 0.222 0.000
v 0.234 0.144 0.000
v 0.247 0.177 0.000
v 0.196 0.222 0.000
v 0.234 0.144 0.000
v 0.206 0.099 0.000
v 0.196 0.222 0.000
v 0.206 0.099 0.000
v 0.234 0.144 0.000
v 0.196 0.222 0.000
v 0.206 0.099 0.000
v 0.185 0.109 0.000
v 0.196 0.222 0.000
v 0.185 0.109 0.000
v 0.206 0.099 0.000
v 0.196 0.222 0.000
v 0.185 0.109 0.000
v 0.124 0.076 0.000
v 0.196 0.222 0.000
v 0.124 0.076 0.000
v 0.185 0.109 0.000
v 0.196 0.222 0.000
v 0.124 0.076 0.000
v 0.066 0.146 0.000
v 0.196 0.222 0.000
v 0.066 0.146 0.000
v 0.124 0.076 0.000
v 0.196 0.222 0.000
v 0.066 0.146 0.000
v 0.007 0.194 0.000
v 0.196 0.222 0.000
v 0.007 0.194 0.000
v 0.066 0.146 0.000
v 0.196 0.222 0.000
v 0.007 0.194 0.000
v -0.043 0.260 0.000
v 0.196 0.222 0.000
v -0.043 0.260 0.000
v 0.007 0.194 0.000
v -0.043 0.260 0.000
v -0.001 0.291 0.000
v 0.035 0.290 0.000
v -0.043 0.260 0.000
v 0.035 0.290 0.000
v -0.001 0.291 0.000
v -0.043 0.260 0.000
v 0.035 0.290 0.000
v 0.063 0.267 0.000
v -0.043 0.260 0.000
v 0.063 0.267 0.000
v 0.035 0.290 0.000
v 0.112 0.323 0.000
v 0.111 0.410 0.000
v 0.153 0.414 0.000
v 0.112 0.323 0.000
v 0.153 0.414 0.000
v 0.111 0.410 0.000
v 0.112 0.323 0.000
v 0.153 0.414 0.000
v 0.174 0.393 0.000
v 0.112 0.323 0.000
v 0.174 0.393 0.000
v 0.153 0.414 0.000
v 0.112 0.323 0.000
v 0.174 0.393 0.000
v 0.208 0.400 0.000
v 0.112 0.323 0.000
v 0.208 0.400 0.000
v 0.174 0.393 0.000
v 0.112 0.323 0.000
v 0.208 0.400 0.000
v 0.127 0.331 0.000
v 0.112 0.323 0.000
v 0.127 0.331 0.000
v 0.208 0.400 0.000
v 0.112 0.323 0.000
v 0.127 0.331 0.000
v 0.196 0.222 0.000
v 0.112 0.323 0.000
v 0.196 0.222 0.000
v 0.127 0.331 0.000
v 0.196 0.222 0.000
v -0.043 0.260 0.000
v 0.063 0.267 0.000
v 0.196 0.222 0.000
v 0.063 0.267 0.000
v -0.043 0.260 0.000
v 0.196 0.222 0.000
v 0.063 0.267 0.000
v 0.112 0.323 0.000
v 0.196 0.222 0.000
v 0.112 0.323 0.000
v 0.063 0.267 0.000
v -0.091 0.168 0.000
v -0.260 0.012 0.000
v -0.377 0.129 0.000
v -0.214 0.291 0.000
v -0.091 0.168 0.000
v -0.214 0.291 0.000
v -0.377 0.129 0.000
v -0.260 0.012 0.000
v 0.220 -0.180 0.000
v 0.064 -0.011 0.000
v 0.180 0.106 0.000
v 0.343 -0.057 0.000
v 0.220 -0.180 0.000
v 0.343 -0.057 0.000
v 0.180 0.106 0.000
v 0.064 -0.011 0.000
v 0.220 -0.180 0.000
v 0.064 -0.011 0.000
v 0.180 0.106 0.000
v 0.343 -0.057 0.000
v 0.220 -0.180 0.000
v 0.343 -0.057 0.000
v 0.180 0.106 0.000
v 0.064 -0.011 0.000

vt 1.0000 1.0000
vt 0.3908 1.0680
vt 0.7931 1.5077
vt 1.0000 1.0000
vt 0.7931 1.5077
vt 0.3908 1.0680
vt 1.0000 1.0000
vt 0.7931 1.5077
vt 1.1609 1.9692
vt 1.0000 1.0000
vt 1.1609 1.9692
vt 0.7931 1.5077
vt 1.1609 1.9692
vt 1.1337 2.4923
vt 1.3218 2.6000
vt 1.1609 1.9692
vt 1.3218 2.6000
vt 1.1337 2.4923
vt 1.1609 1.9692
vt 1.3218 2.6000
vt 1.6207 2.6923
vt 1.1609 1.9692
vt 1.6207 2.6923
vt 1.3218 2.6000
vt 1.1609 1.9692
vt 1.6207 2.6923
vt 1.6667 2.5231
vt 1.1609 1.9692
vt 1.6667 2.5231
vt 1.6207 2.6923
vt 1.1609 1.9692
vt 1.6667 2.5231
vt 2.0460 2.3692
vt 1.1609 1.9692
vt 2.0460 2.3692
vt 1.6667 2.5231
vt 1.1609 1.9692
vt 2.0460 2.3692
vt 2.0000 1.6769
vt 1.1609 1.9692
vt 2.0000 1.6769
vt 2.0460 2.3692
vt 1.1609 1.9692
vt 2.0000 1.6769
vt 2.0460 1.0923
vt 1.1609 1.9692
vt 2.0460 1.0923
vt 2.0000 1.6769
vt 1.1609 1.9692
vt 2.0460 1.0923
vt 1.9770 0.4615
vt 1.1609 1.9692
vt 1.9770 0.4615
vt 2.0460 1.0923
vt 1.9770 0.4615
vt 1.6813 0.5195
vt 1.5402 0.7231
vt 1.9770 0.4615
vt 1.5402 0.7231
vt 1.6813 0.5195
vt 1.9770 0.4615
vt 1.5402 0.7231
vt 1.5172 1.0000
vt 1.9770 0.4615
vt 1.5172 1.0000
vt 1.5402 0.7231
vt 1.0920 0.9660
vt 0.7445 0.4868
vt 0.5538 0.6886
vt 1.0920 0.9660
vt 0.5538 0.6886
vt 0.7445 0.4868
vt 1.0920 0.9660
vt 0.5538 0.6886
vt 0.5538 0.9194
vt 1.0920 0.9660
vt 0.5538 0.9194
vt 0.5538 0.6886
vt 1.0920 0.9660
vt 0.5538 0.9194
vt 0.3908 1.0680
vt 1.0920 0.9660
vt 0.3908 1.0680
vt 0.5538 0.9194
vt 1.0920 0.9660
vt 0.3908 1.0680
vt 1.0000 1.0000
vt 1.0920 0.9660
vt 1.0000 1.0000
vt 0.3908 1.0680
vt 1.0920 0.9660
vt 1.0000 1.0000
vt 1.1609 1.9692
vt 1.0920 0.9660
vt 1.1609 1.9692
vt 1.0000 1.0000
vt 1.1609 1.9692
vt 1.9770 0.4615
vt 1.5172 1.0000
vt 1.1609 1.9692
vt 1.5172 1.0000
vt 1.9770 0.4615
vt 1.1609 1.9692
vt 1.5172 1.0000
vt 1.0920 0.9660
vt 1.1609 1.9692
vt 1.0920 0.9660
vt 1.5172 1.0000
vt 1.0000 1.0000
vt 0.3908 1.0679
vt 0.7931 1.5077
vt 1.0000 1.0000
vt 0.7931 1.5077
vt 0.3908 1.0679
vt 1.0000 1.0000
vt 0.7931 1.5077
vt 1.1609 1.9692
vt 1.0000 1.0000
vt 1.1609 1.9692
vt 0.7931 1.5077
vt 1.1609 1.9692
vt 1.1337 2.4923
vt 1.3218 2.6000
vt 1.1609 1.9692
vt 1.3218 2.6000
vt 1.1337 2.4923
vt 1.1609 1.9692
vt 1.3218 2.6000
vt 1.6207 2.6923
vt 1.1609 1.9692
vt 1.6207 2.6923
vt 1.3218 2.6000
vt 1.1609 1.9692
vt 1.6207 2.6923
vt 1.6667 2.5231
vt 1.1609 1.9692
vt 1.6667 2.5231
vt 1.6207 2.6923
vt 1.1609 1.9692
vt 1.6667 2.5231
vt 2.0460 2.3692
vt 1.1609 1.9692
vt 2.0460 2.3692
vt 1.6667 2.5231
vt 1.1609 1.9692
vt 2.0460 2.3692
vt 2.0000 1.6769
vt 1.1609 1.9692
vt 2.0000 1.6769
vt 2.0460 2.3692
vt 1.1609 1.9692
vt 2.0000 1.6769
vt 2.0460 1.0923
vt 1.1609 1.9692
vt 2.0460 1.0923
vt 2.0000 1.6769
vt 1.1609 1.9692
vt 2.0460 1.0923
vt 1.9770 0.4615
vt 1.1609 1.9692
vt 1.9770 0.4615
vt 2.0460 1.0923
vt 1.9770 0.4615
vt 1.6813 0.5195
vt 1.5402 0.7231
vt 1.9770 0.4615
vt 1.5402 0.7231
vt 1.6813 0.5195
vt 1.9770 0.4615
vt 1.5402 0.7231
vt 1.5172 1.0000
vt 1.9770 0.4615
vt 1.5172 1.0000
vt 1.5402 0.7231
vt 1.0920 0.9660
vt 0.7445 0.4868
vt 0.5538 0.6886
vt 1.0920 0.9660
vt 0.5538 0.6886
vt 0.7445 0.4868
vt 1.0920 0.9660
vt 0.5538 0.6886
vt 0.5538 0.9194
vt 1.0920 0.9660
vt 0.5538 0.9194
vt 0.5538 0.6886
vt 1.0920 0.9660
vt 0.5538 0.9194
vt 0.3908 1.0679
vt 1.0920 0.9660
vt 0.3908 1.0679
vt 0.5538 0.9194
vt 1.0920 0.9660
vt 0.3908 1.0679
vt 1.0000 1.0000
vt 1.0920 0.9660
vt 1.0000 1.0000
vt 0.3908 1.0679
vt 1.0920 0.9660
vt 1.0000 1.0000
vt 1.1609 1.9692
vt 1.0920 0.9660
vt 1.1609 1.9692
vt 1.0000 1.0000
vt 1.1609 1.9692
vt 1.9770 0.4615
vt 1.5172 1.0000
vt 1.1609 1.9692
vt 1.5172 1.0000
vt 1.9770 0.4615
vt 1.1609 1.9692
vt 1.5172 1.0000
vt 1.0920 0.9660
vt 1.1609 1.9692
vt 1.0920 0.9660
vt 1.5172 1.0000
vt 1.0000 1.0000
vt 0.3908 1.0680
vt 0.7931 1.5077
vt 1.0000 1.0000
vt 0.7931 1.5077
vt 0.3908 1.0680
vt 1.0000 1.0000
vt 0.7931 1.5077
vt 1.1609 1.9692
vt 1.0000 1.0000
vt 1.1609 1.9692
vt 0.7931 1.5077
vt 1.1609 1.9692
vt 1.1337 2.4923
vt 1.3218 2.6000
vt 1.1609 1.9692
vt 1.3218 2.6000
vt 1.1337 2.4923
vt 1.1609 1.9692
vt 1.3218 2.6000
vt 1.6207 2.6923
vt 1.1609 1.9692
vt 1.6207 2.6923
vt 1.3218 2.6000
vt 1.1609 1.9692
vt 1.6207 2.6923
vt 1.6667 2.5231
vt 1.1609 1.9692
vt 1.6667 2.5231
vt 1.6207 2.6923
vt 1.1609 1.9692
vt 1.6667 2.5231
vt 2.0460 2.3692
vt 1.1609 1.9692
vt 2.0460 2.3692
vt 1.6667 2.5231
vt 1.1609 1.9692
vt 2.0460 2.3692
vt 2.0000 1.6769
vt 1.1609 1.9692
vt 2.0000 1.6769
vt 2.0460 2.3692
vt 1.1609 1.9692
vt 2.0000 1.6769
vt 2.0460 1.0923
vt 1.1609 1.9692
vt 2.0460 1.0923
vt 2.0000 1.6769
vt 1.1609 1.9692
vt 2.0460 1.0923
vt 1.9770 0.4615
vt 1.1609 1.9692
vt 1.9770 0.4615
vt 2.0460 1.0923
vt 1.9770 0.4615
vt 1.6813 0.5195
vt 1.5402 0.7231
vt 1.9770 0.4615
vt 1.5402 0.7231
vt 1.6813 0.5195
vt 1.9770 0.4615
vt 1.5402 0.7231
vt 1.5172 1.0000
vt 1.9770 0.4615
vt 1.5172 1.0000
vt 1.5402 0.7231
vt 1.0920 0.9660
vt 0.7445 0.4868
vt 0.5538 0.6886
vt 1.0920 0.9660
vt 0.5538 0.6886
vt 0.7445 0.4868
vt 1.0920 0.9660
vt 0.5538 0.6886
vt 0.5538 0.9194
vt 1.0920 0.9660
vt 0.5538 0.9194
vt 0.5538 0.6886
vt 1.0920 0.9660
vt 0.5538 0.9194
vt 0.3908 1.0680
vt 1.0920 0.9660
vt 0.3908 1.0680
vt 0.5538 0.9194
vt 1.0920 0.9660
vt 0.3908 1.0680
vt 1.0000 1.0000
vt 1.0920 0.9660
vt 1.0000 1.0000
vt 0.3908 1.0680
vt 1.0920 0.9660
vt 1.0000 1.0000
vt 1.1609 1.9692
vt 1.0920 0.9660
vt 1.1609 1.9692
vt 1.0000 1.0000
vt 1.1609 1.9692
vt 1.9770 0.4615
vt 1.5172 1.0000
vt 1.1609 1.9692
vt 1.5172 1.0000
vt 1.9770 0.4615
vt 1.1609 1.9692
vt 1.5172 1.0000
vt 1.0920 0.9660
vt 1.1609 1.9692
vt 1.0920 0.9660
vt 1.5172 1.0000
vt 1.0000 1.0000
vt 1.0517 1.9914
vt 2.0000 1.9914
vt 2.0000 1.0000
vt 1.0000 1.0000
vt 2.0000 1.0000
vt 2.0000 1.9914
vt 1.0517 1.9914
vt 1.0000 1.0000
vt 1.0517 1.9914
vt 2.0000 1.9914
vt 2.0000 1.0000
vt 1.0000 1.0000
vt 2.0000 1.0000
vt 2.0000 1.9914
vt 1.0517 1.9914
vt 1.0000 1.0000
vt 1.0517 1.9914
vt 2.0000 1.9914
vt 2.0000 1.0000
vt 1.0000 1.0000
vt 2.0000 1.0000
vt 2.0000 1.9914
vt 1.0517 1.9914

usemtl 25517
f 1/1 2/2 3/3
f 4/4 5/5 6/6
f 7/7 8/8 9/9
f 10/10 11/11 12/12
f 13/13 14/14 15/15
f 16/16 17/17 18/18
f 19/19 20/20 21/21
f 22/22 23/23 24/24
f 25/25 26/26 27/27
f 28/28 29/29 30/30
f 31/31 32/32 33/33
f 34/34 35/35 36/36
f 37/37 38/38 39/39
f 40/40 41/41 42/42
f 43/43 44/44 45/45
f 46/46 47/47 48/48
f 49/49 50/50 51/51
f 52/52 53/53 54/54
f 55/55 56/56 57/57
f 58/58 59/59 60/60
f 61/61 62/62 63/63
f 64/64 65/65 66/66
f 67/67 68/68 69/69
f 70/70 71/71 72/72
f 73/73 74/74 75/75
f 76/76 77/77 78/78
f 79/79 80/80 81/81
f 82/82 83/83 84/84
f 85/85 86/86 87/87
f 88/88 89/89 90/90
f 91/91 92/92 93/93
f 94/94 95/95 96/96
f 97/97 98/98 99/99
f 100/100 101/101 102/102
f 103/103 104/104 105/105
f 106/106 107/107 108/108
f 109/109 110/110 111/111
f 112/112 113/113 114/114
f 115/115 116/116 117/117
f 118/118 119/119 120/120
f 121/121 122/122 123/123
f 124/124 125/125 126/126
f 127/127 128/128 129/129
f 130/130 131/131 132/132
f 133/133 134/134 135/135
f 136/136 137/137 138/138
f 139/139 140/140 141/141
f 142/142 143/143 144/144
f 145/145 146/146 147/147
f 148/148 149/149 150/150
f 151/151 152/152 153/153
f 154/154 155/155 156/156
f 157/157 158/158 159/159
f 160/160 161/161 162/162
f 163/163 164/164 165/165
f 166/166 167/167 168/168
f 169/169 170/170 171/171
f 172/172 173/173 174/174
f 175/175 176/176 177/177
f 178/178 179/179 180/180
f 181/181 182/182 183/183
f 184/184 185/185 186/186
f 187/187 188/188 189/189
f 190/190 191/191 192/192
f 193/193 194/194 195/195
f 196/196 197/197 198/198
f 199/199 200/200 201/201
f 202/202 203/203 204/204
f 205/205 206/206 207/207
f 208/208 209/209 210/210
f 211/211 212/212 213/213
f 214/214 215/215 216/216
f 217/217 218/218 219/219
f 220/220 221/221 222/222
f 223/223 224/224 225/225
f 226/226 227/227 228/228
f 229/229 230/230 231/231
f 232/232 233/233 234/234
f 235/235 236/236 237/237
f 238/238 239/239 240/240
f 241/241 242/242 243/243
f 244/244 245/245 246/246
f 247/247 248/248 249/249
f 250/250 251/251 252/252
f 253/253 254/254 255/255
f 256/256 257/257 258/258
f 259/259 260/260 261/261
f 262/262 263/263 264/264
f 265/265 266/266 267/267
f 268/268 269/269 270/270
f 271/271 272/272 273/273
f 274/274 275/275 276/276
f 277/277 278/278 279/279
f 280/280 281/281 282/282
f 283/283 284/284 285/285
f 286/286 287/287 288/288
f 289/289 290/290 291/291
f 292/292 293/293 294/294
f 295/295 296/296 297/297
f 298/298 299/299 300/300
f 301/301 302/302 303/303
f 304/304 305/305 306/306
f 307/307 308/308 309/309
f 310/310 311/311 312/312
f 313/313 314/314 315/315
f 316/316 317/317 318/318
f 319/319 320/320 321/321
f 322/322 323/323 324/324
usemtl 25531
f 325/325 326/326 327/327 328/328
f 329/329 330/330 331/331 332/332
f 333/333 334/334 335/335 336/336
f 337/337 338/338 339/339 340/340
f 341/341 342/342 343/343 344/344
f 345/345 346/346 347/347 348/348
