newmtl 25008
Ks 0 0 0
map_Kd 25008.JPG
newmtl 25008S
Ks 0.0000 0.0000 0.0000
Kd 0.8706 0.8706 0.8706
d 0.0000
newmtl 22088
Ks 0 0 0
Kd 1.0000 1.0000 0.9686
newmtl 24500
Ks 0 0 0
Kd 1.0000 1.0000 0.9686
newmtl 24513
Ks 0 0 0
Kd 0.1843 0.1961 0.2039
newmtl 16450
Ks 0 0 0
Kd 1.0000 1.0000 0.9686
newmtl 22158
Ks 0.3684 0.3684 0.3684
Kd 0.1529 0.1451 0.1294
newmtl 22071
Ks 0.5 0.5 0.5
map_Kd 22071.JPG
map_ks 22071_spec.png
map_bump 22071_bump.png
newmtl 22071S
Ks 0.0000 0.0000 0.0000
Kd 0.3059 0.2118 0.1843
d 0.0000
newmtl 22044
Ks 0 0 0
Kd 0.1451 0.1451 0.1451
newmtl 25290
Ks 0.2368 0.2368 0.2368
map_Kd 25290.JPG
newmtl 25290S
Ks 0.0000 0.0000 0.0000
Kd 0.4588 0.4706 0.4902
d 0.0000
newmtl 22212
Ks 0.2105 0.2105 0.2105
Kd 0.5020 0.5020 0.5020
newmtl 22226
Ks 0 0 0
Kd 0.8392 0.7490 0.3961
newmtl 22197
Ks 0 0 0
Kd 1.0000 0.8000 0.2000
newmtl 20447
Ks 1.0000 1.0000 1.0000
Kd 0.8706 0.8745 0.8627
newmtl 20300
Ks 0.3947 0.3947 0.3947
Kd 0.9333 0.9333 0.9333
newmtl 25443
Ks 0 0 0
Kd 1.0000 1.0000 0.9686
newmtl 25006
Ks 0 0 0
map_Kd 25006.JPG
newmtl 25006S
Ks 0.0000 0.0000 0.0000
Kd 0.8824 0.8824 0.8824
d 0.0000
newmtl 25004
Ks 0 0 0
map_Kd 25006.JPG
newmtl 25004S
Ks 0.0000 0.0000 0.0000
Kd 0.8824 0.8824 0.8824
d 0.0000
newmtl 25446
Ks 0 0 0
Kd 1.0000 1.0000 0.9686
newmtl 25449
Ks 0 0 0
map_Kd 25006.JPG
newmtl 25449S
Ks 0.0000 0.0000 0.0000
Kd 0.8824 0.8824 0.8824
d 0.0000
newmtl 25439
Ks 0 0 0
Kd 1.0000 1.0000 0.9686
newmtl 22155
Ks 0 0 0
Kd 0.9451 0.9255 0.8824
newmtl 22178
Ks 0 0 0
Kd 0.5020 0.5020 0.5020
newmtl 22145
Ks 0 0 0
Kd 0.9451 0.9255 0.8824
newmtl 22137
Ks 0.7632 0.7632 0.7632
map_Kd 22137.JPG
newmtl 22137S
Ks 0.0000 0.0000 0.0000
Kd 0.6275 0.6275 0.6235
d 0.0000
newmtl 24829
Ks 0 0 0
Kd 0.9804 0.9569 0.8902
newmtl 22148
Ks 0 0 0
Kd 0.9451 0.9255 0.8824
newmtl 24833
Ks 0 0 0
Kd 0.9098 0.9098 0.9098
newmtl 22053
Ks 0.5 0.5 0.5
Kd 0.9882 0.9882 0.9882
newmtl 24590
Ks 0 0 0
map_Kd 24590.JPG
map_ks 24590_spec.png
map_bump 24590_bump.png
newmtl 24590S
Ks 0.0000 0.0000 0.0000
Kd 0.3255 0.3059 0.2941
d 0.0000
newmtl 22047
Ks 0 0 0
Kd 0.9020 0.9020 0.9020
newmtl 24525
Ks 0 0 0
map_Kd 25006.JPG
newmtl 24525S
Ks 0.0000 0.0000 0.0000
Kd 0.8824 0.8824 0.8824
d 0.0000
newmtl 22174
Ks 0 0 0
map_Kd 22174.JPG
newmtl 22174S
Ks 0.0000 0.0000 0.0000
Kd 0.7765 0.7686 0.7490
d 0.0000
newmtl 24592
Ks 0 0 0
map_Kd 24592.JPG
map_ks 24592_spec.png
map_bump 24592_bump.png
newmtl 24592S
Ks 0.0000 0.0000 0.0000
Kd 0.3216 0.3059 0.2902
d 0.0000
newmtl 22064
Ks 0.3 0.3 0.3
map_Kd 22064.JPG
map_ks 22064_spec.png
map_bump 22064_bump.png
newmtl 22064S
Ks 0.0000 0.0000 0.0000
Kd 0.3059 0.2118 0.1843
d 0.0000
newmtl 22161
Ks 0.7632 0.7632 0.7632
map_Kd 22137.JPG
newmtl 22161S
Ks 0.0000 0.0000 0.0000
Kd 0.6275 0.6275 0.6235
d 0.0000
newmtl 20406
Ks 0 0 0
Kd 0.5725 0.5725 0.5725
newmtl 20272
Ks 0.3947 0.3947 0.3947
Kd 0.0000 0.0000 0.0000
newmtl 22140
Ks 0 0 0
Kd 0.9412 0.9412 0.9412
newmtl 22152
Ks 0 0 0
Kd 0.8196 0.8196 0.8196
newmtl 25434
Ks 0 0 0
map_Kd 25434.JPG
newmtl 25434S
Ks 0.0000 0.0000 0.0000
Kd 0.6314 0.5412 0.4667
d 0.0000
newmtl 22160
Ks 0.7 0.7 0.7
map_Kd 22160.JPG
map_ks 22160_spec.png
map_bump 22160_bump.png
newmtl 22160S
Ks 0.0000 0.0000 0.0000
Kd 0.2078 0.2000 0.1961
d 0.0000
newmtl 22121
Ks 0 0 0
Kd 1.0000 1.0000 0.9686
newmtl 22119
Ks 0 0 0
Kd 1.0000 1.0000 0.9686
newmtl 22336
Ks 0 0 0
Kd 0.1843 0.1961 0.2039
newmtl 22111
Ks 0 0 0
Kd 0.1294 0.1608 0.2235
newmtl 22179
Ks 0 0 0
Kd 0.1804 0.1804 0.1804
newmtl 22344
Ks 0 0 0
Kd 0.1843 0.1961 0.2039
newmtl 22105
Ks 0 0 0
Kd 0.9451 0.9255 0.8824
newmtl 22107
Ks 0 0 0
Kd 0.1294 0.1608 0.2235
newmtl 22333
Ks 0 0 0
Kd 0.1843 0.1961 0.2039
newmtl 25344
Ks 0 0 0
map_Kd 25344.JPG
newmtl 25344S
Ks 0.0000 0.0000 0.0000
Kd 0.8078 0.6549 0.4824
d 0.0000
newmtl 22154
Ks 0 0 0
Kd 0.8196 0.8196 0.8196
newmtl 14286
Ks 1.0000 1.0000 1.0000
Kd 0.8275 0.8471 0.8353
newmtl 14293
Ks 0.3947 0.3947 0.3947
Kd 0.8039 0.8039 0.8039
newmtl 14292
Ks 0 0 0
Kd 0.7529 0.7529 0.7529
newmtl 14297
Ks 0.3947 0.3947 0.3947
Kd 0.8039 0.8039 0.8039
newmtl 22103
Ks 0 0 0
Kd 0.9412 0.9412 0.9412
newmtl 22101
Ks 0 0 0
Kd 0.9412 0.9412 0.9412
newmtl 22132
Ks 0 0 0
Kd 0.1294 0.1608 0.2235
newmtl 22133
Ks 0 0 0
Kd 1.0000 1.0000 0.9686
newmtl 22042
Ks 0 0 0
Kd 0.7765 0.6510 0.3922
newmtl 16447
Ks 0 0 0
Kd 0.8471 0.8471 0.8471
newmtl 15057
Ks 0 0 0
Kd 0.8471 0.8471 0.8471
newmtl 16448
Ks 0 0 0
Kd 0.4706 0.4706 0.4706
newmtl 15058
Ks 0 0 0
Kd 0.4706 0.4706 0.4706
newmtl 16449
Ks 0 0 0
Kd 0.1569 0.1569 0.1569
newmtl 20755
Ks 0 0 0
Kd 0.6235 0.6235 0.6235
newmtl 22150
Ks 0 0 0
Kd 0.1294 0.1608 0.2235
newmtl 22222
Ks 0 0 0
Kd 0.9098 0.9098 0.9098
newmtl 22339
Ks 0 0 0
Kd 0.1843 0.1961 0.2039
newmtl 22130
Ks 0 0 0
Kd 0.1294 0.1608 0.2235
newmtl 22109
Ks 0 0 0
Kd 0.9451 0.9255 0.8824
newmtl 22108
Ks 0 0 0
Kd 0.1843 0.1961 0.2039
newmtl 22337
Ks 0 0 0
Kd 0.9451 0.9255 0.8824
newmtl 25437
Ks 0 0 0
map_Kd 25437.JPG
newmtl 25437S
Ks 0.0000 0.0000 0.0000
Kd 0.1725 0.1725 0.1804
d 0.0000
newmtl 22110
Ks 0 0 0
Kd 0.9451 0.9255 0.8824
newmtl 22106
Ks 0 0 0
Kd 0.9451 0.9255 0.8824
newmtl 22104
Ks 0 0 0
Kd 0.2824 0.2824 0.2824
newmtl 22102
Ks 0 0 0
Kd 0.9412 0.9412 0.9412
newmtl 22035
Ks 0 0 0
Kd 0.9882 0.9882 0.9882
newmtl 24614
Ks 0.1053 0.1053 0.1053
map_Kd 24614.JPG
newmtl 24614S
Ks 0.0000 0.0000 0.0000
Kd 0.1294 0.1098 0.0941
d 0.0000
newmtl 25288
Ks 0.2368 0.2368 0.2368
map_Kd 25290.JPG
newmtl 25288S
Ks 0.0000 0.0000 0.0000
Kd 0.4588 0.4706 0.4902
d 0.0000
newmtl 25044
Ks 0.1053 0.1053 0.1053
map_Kd 25044.JPG
newmtl 25044S
Ks 0.0000 0.0000 0.0000
Kd 0.2431 0.3608 0.0745
d 0.0000
newmtl 24616
Ks 0.1053 0.1053 0.1053
map_Kd 24616.JPG
newmtl 24616S
Ks 0.0000 0.0000 0.0000
Kd 0.8078 0.8000 0.7765
d 0.0000
newmtl 10251
Ks 0 0 0
Kd 0.0000 0.0000 0.0000
newmtl 10264
Ks 0 0 0
Kd 0.6706 0.6706 0.6706
newmtl 25084
Ks 0.1316 0.1316 0.1316
map_Kd 25084.JPG
newmtl 25084S
Ks 0.0000 0.0000 0.0000
Kd 0.4627 0.3686 0.3294
d 0.0000
newmtl 10252
Ks 0 0 0
Kd 0.9608 0.7922 0.6549
newmtl 10263
Ks 0 0 0
Kd 0.7686 0.9922 0.7804
newmtl 25034
Ks 0 0 0
map_Kd 25034.JPG
newmtl 25034S
Ks 0.0000 0.0000 0.0000
Kd 0.6078 0.6000 0.5804
d 0.0000
newmtl 25420
Ks 0.1316 0.1316 0.1316
map_Kd 25420.JPG
newmtl 25420S
Ks 0.0000 0.0000 0.0000
Kd 0.6471 0.6510 0.6353
d 0.0000
newmtl 25144
Ks 0.1053 0.1053 0.1053
map_Kd 25144.JPG
map_d 25144_d.png
newmtl 25144S
Ks 0.0000 0.0000 0.0000
Kd 0.3608 0.3098 0.2784
d 0.0000
newmtl 24808
Ks 0.1053 0.1053 0.1053
map_Kd 24808.JPG
newmtl 24808S
Ks 0.0000 0.0000 0.0000
Kd 0.5255 0.4510 0.3961
d 0.0000
newmtl 22217
Ks 0 0 0
Kd 0.7529 0.7529 0.7529
newmtl 25066
Ks 0.1053 0.1053 0.1053
map_Kd 25066.JPG
map_d 25066_d.png
newmtl 25066S
Ks 0.0000 0.0000 0.0000
Kd 0.3608 0.4706 0.2627
d 0.0000
newmtl 25072
Ks 0.1053 0.1053 0.1053
map_Kd 25072.JPG
map_d 25072_d.png
newmtl 25072S
Ks 0.0000 0.0000 0.0000
Kd 0.3098 0.4157 0.2314
d 0.0000
newmtl 25048
Ks 0.1316 0.1316 0.1316
map_Kd 25048.JPG
newmtl 25048S
Ks 0.0000 0.0000 0.0000
Kd 0.5765 0.4863 0.4549
d 0.0000
newmtl 25040
Ks 0.1316 0.1316 0.1316
map_Kd 25040.JPG
newmtl 25040S
Ks 0.0000 0.0000 0.0000
Kd 0.5608 0.4667 0.4314
d 0.0000
newmtl 22239
Ks 0 0 0
Kd 1.0000 0.6275 0.6275
newmtl 25467
Ks 0 0 0
Kd 0.7529 1.0000 0.7529
newmtl 22241
Ks 0 0 0
Kd 0.6275 0.7529 1.0000
newmtl 25026
Ks 0.1316 0.1316 0.1316
map_Kd 25026.JPG
newmtl 25026S
Ks 0.0000 0.0000 0.0000
Kd 0.4667 0.3686 0.3294
d 0.0000
newmtl 24708
Ks 0.1316 0.1316 0.1316
map_Kd 24708.JPG
newmtl 24708S
Ks 0.0000 0.0000 0.0000
Kd 0.5137 0.5137 0.5137
d 0.0000
newmtl 22242
Ks 0 0 0
Kd 1.0000 1.0000 0.5020
newmtl 25412
Ks 0.1316 0.1316 0.1316
map_Kd 25412.JPG
newmtl 25412S
Ks 0.0000 0.0000 0.0000
Kd 0.4549 0.4667 0.4863
d 0.0000
newmtl 22184
Ks 0.4474 0.4474 0.4474
Kd 0.5020 0.5020 0.5020
d 0.2000
newmtl 22071S
Ks 0.0000 0.0000 0.0000
Kd 0.3059 0.2118 0.1843
newmtl 22064S
Ks 0.0000 0.0000 0.0000
Kd 0.3059 0.2118 0.1843
newmtl -22071S
Ks 0.0000 0.0000 0.0000
Kd 0.3059 0.2118 0.1843